[gd_scene load_steps=14 format=2]

[ext_resource path="res://Escenas/Creador_Enemigos_1.tscn" type="PackedScene" id=1]
[ext_resource path="res://Escenas/Principal.gd" type="Script" id=2]
[ext_resource path="res://Escenas/tileset_invisible.tres" type="TileSet" id=3]
[ext_resource path="res://Entidades/Edificios/6.tscn" type="PackedScene" id=4]
[ext_resource path="res://Entidades/Vendedores/2/vendedor_masculino_2.tscn" type="PackedScene" id=5]
[ext_resource path="res://Entidades/Vendedores/1/vendedor_masculino_1.tscn" type="PackedScene" id=6]
[ext_resource path="res://Entidades/Jugador/Jugador.tscn" type="PackedScene" id=7]
[ext_resource path="res://Entidades/Vendedores/3/vendedor_masculino_3.tscn" type="PackedScene" id=8]
[ext_resource path="res://Sonidos/musica_alegre.ogg" type="AudioStream" id=9]
[ext_resource path="res://Entidades/Edificios/12.tscn" type="PackedScene" id=10]
[ext_resource path="res://Entidades/Edificios/4.tscn" type="PackedScene" id=11]
[ext_resource path="res://Escenas/tileset_visible.tres" type="TileSet" id=12]
[ext_resource path="res://Escenas/HUD.tscn" type="PackedScene" id=15]

[node name="Nivel_1" type="Node"]
script = ExtResource( 2 )

[node name="Jugador" parent="." instance=ExtResource( 7 )]
position = Vector2( 888, 160 )

[node name="TileMap_invisible" type="TileMap" parent="."]
position = Vector2( 0, -2 )
tile_set = ExtResource( 3 )
cell_size = Vector2( 128, 128 )
cell_y_sort = true
format = 1
tile_data = PoolIntArray( -1, 2, 0, -65536, 2, 0, -65535, 2, 0, -65534, 2, 0, -65533, 2, 0, -65532, 2, 0, -65531, 2, 0, -65530, 2, 0, -65529, 2, 0, -65528, 2, 0, -65527, 3, 0, -65526, 2, 0, -65525, 2, 0, -65524, 2, 0, -65523, 2, 0, -65522, 2, 0, 65535, 2, 0, 0, 0, 0, 1, 0, 0, 2, 0, 0, 3, 0, 0, 4, 0, 0, 5, 2, 0, 6, 0, 0, 7, 0, 0, 8, 0, 0, 9, 1, 0, 10, 0, 0, 11, 0, 0, 12, 0, 0, 13, 0, 0, 14, 2, 0, 131071, 2, 0, 65536, 0, 0, 65537, 0, 0, 65538, 0, 0, 65539, 0, 0, 65540, 0, 0, 65541, 2, 0, 65542, 0, 0, 65543, 0, 0, 65544, 0, 0, 65545, 1, 0, 65546, 0, 0, 65547, 0, 0, 65548, 0, 0, 65549, 0, 0, 65550, 2, 0, 196607, 2, 0, 131072, 0, 0, 131073, 0, 0, 131074, 0, 0, 131075, 0, 0, 131076, 0, 0, 131077, 2, 0, 131078, 0, 0, 131079, 0, 0, 131080, 0, 0, 131081, 1, 0, 131082, 0, 0, 131083, 0, 0, 131084, 0, 0, 131085, 0, 0, 131086, 2, 0, 262143, 2, 0, 196608, 0, 0, 196609, 0, 0, 196610, 0, 0, 196611, 1, 0, 196612, 0, 0, 196613, 2, 0, 196614, 0, 0, 196615, 0, 0, 196616, 0, 0, 196617, 1, 0, 196618, 0, 0, 196619, 0, 0, 196620, 0, 0, 196621, 0, 0, 196622, 2, 0, 196623, 2, 0, 196624, 2, 0, 196625, 2, 0, 196626, 2, 0, 196627, 2, 0, 327679, 2, 0, 262144, 0, 0, 262145, 0, 0, 262146, 0, 0, 262147, 1, 0, 262148, 1, 0, 262149, 1, 0, 262150, 1, 0, 262151, 1, 0, 262152, 1, 0, 262153, 1, 0, 262154, 1, 0, 262155, 1, 0, 262156, 1, 0, 262157, 1, 0, 262158, 0, 0, 262159, 0, 0, 262160, 0, 0, 262161, 0, 0, 262162, 0, 0, 262163, 2, 0, 393215, 2, 0, 327680, 0, 0, 327681, 0, 0, 327682, 0, 0, 327683, 0, 0, 327684, 0, 0, 327685, 0, 0, 327686, 0, 0, 327687, 0, 0, 327688, 0, 0, 327689, 1, 0, 327690, 0, 0, 327691, 0, 0, 327692, 0, 0, 327693, 0, 0, 327694, 0, 0, 327695, 0, 0, 327696, 0, 0, 327697, 0, 0, 327698, 0, 0, 327699, 2, 0, 458751, 2, 0, 393216, 0, 0, 393217, 0, 0, 393218, 0, 0, 393219, 0, 0, 393220, 0, 0, 393221, 0, 0, 393222, 0, 0, 393223, 0, 0, 393224, 0, 0, 393225, 1, 0, 393226, 0, 0, 393227, 0, 0, 393228, 0, 0, 393229, 0, 0, 393230, 0, 0, 393231, 0, 0, 393232, 0, 0, 393233, 0, 0, 393234, 0, 0, 393235, 2, 0, 524287, 2, 0, 458752, 0, 0, 458753, 0, 0, 458754, 1, 0, 458755, 0, 0, 458756, 0, 0, 458757, 0, 0, 458758, 0, 0, 458759, 0, 0, 458760, 0, 0, 458761, 1, 0, 458762, 1, 0, 458763, 1, 0, 458764, 1, 0, 458765, 1, 0, 458766, 1, 0, 458767, 1, 0, 458768, 1, 0, 458769, 1, 0, 458770, 0, 0, 458771, 2, 0, 589823, 2, 0, 524288, 0, 0, 524289, 0, 0, 524290, 1, 0, 524291, 0, 0, 524292, 0, 0, 524293, 0, 0, 524294, 0, 0, 524295, 0, 0, 524296, 0, 0, 524297, 1, 0, 524298, 0, 0, 524299, 0, 0, 524300, 0, 0, 524301, 0, 0, 524302, 2, 0, 524303, 0, 0, 524304, 0, 0, 524305, 0, 0, 524306, 0, 0, 524307, 2, 0, 655359, 2, 0, 589824, 0, 0, 589825, 0, 0, 589826, 1, 0, 589827, 0, 0, 589828, 0, 0, 589829, 0, 0, 589830, 0, 0, 589831, 0, 0, 589832, 0, 0, 589833, 1, 0, 589834, 0, 0, 589835, 0, 0, 589836, 0, 0, 589837, 0, 0, 589838, 2, 0, 589839, 0, 0, 589840, 0, 0, 589841, 0, 0, 589842, 0, 0, 589843, 2, 0, 720895, 2, 0, 655360, 0, 0, 655361, 0, 0, 655362, 1, 0, 655363, 1, 0, 655364, 1, 0, 655365, 1, 0, 655366, 1, 0, 655367, 1, 0, 655368, 1, 0, 655369, 1, 0, 655370, 0, 0, 655371, 0, 0, 655372, 0, 0, 655373, 0, 0, 655374, 2, 0, 655375, 0, 0, 655376, 0, 0, 655377, 0, 0, 655378, 0, 0, 655379, 2, 0, 786431, 2, 0, 720896, 2, 0, 720897, 2, 0, 720898, 0, 0, 720899, 0, 0, 720900, 0, 0, 720901, 0, 0, 720902, 0, 0, 720903, 0, 0, 720904, 0, 0, 720905, 0, 0, 720906, 0, 0, 720907, 0, 0, 720908, 0, 0, 720909, 0, 0, 720910, 2, 0, 720911, 2, 0, 720912, 2, 0, 720913, 2, 0, 720914, 2, 0, 720915, 2, 0, 786433, 2, 0, 786434, 2, 0, 786435, 2, 0, 786436, 2, 0, 786437, 2, 0, 786438, 2, 0, 786439, 2, 0, 786440, 2, 0, 786441, 2, 0, 786442, 2, 0, 786443, 2, 0, 786444, 2, 0, 786445, 2, 0, 786446, 2, 0 )

[node name="TileMap_visible" type="TileMap" parent="."]
position = Vector2( 0, -2 )
tile_set = ExtResource( 12 )
cell_size = Vector2( 128, 128 )
cell_y_sort = true
format = 1
tile_data = PoolIntArray( -1, 2, 0, -65536, 2, 0, -65535, 2, 0, -65534, 2, 0, -65533, 2, 0, -65532, 2, 0, -65531, 2, 0, -65530, 2, 0, -65529, 2, 0, -65528, 2, 0, -65527, 1, 0, -65526, 2, 0, -65525, 2, 0, -65524, 2, 0, -65523, 2, 0, -65522, 2, 0, 65535, 2, 0, 0, 0, 0, 1, 0, 0, 2, 0, 0, 3, 0, 0, 4, 0, 0, 5, 2, 0, 6, 0, 0, 7, 0, 0, 8, 0, 0, 9, 1, 0, 10, 0, 0, 11, 0, 0, 12, 0, 0, 13, 0, 0, 14, 2, 0, 131071, 2, 0, 65536, 0, 0, 65537, 0, 0, 65538, 0, 0, 65539, 0, 0, 65540, 0, 0, 65541, 2, 0, 65542, 0, 0, 65543, 0, 0, 65544, 0, 0, 65545, 1, 0, 65546, 0, 0, 65547, 0, 0, 65548, 0, 0, 65549, 0, 0, 65550, 2, 0, 196607, 2, 0, 131072, 0, 0, 131073, 0, 0, 131074, 0, 0, 131075, 0, 0, 131076, 0, 0, 131077, 2, 0, 131078, 0, 0, 131079, 0, 0, 131080, 0, 0, 131081, 1, 0, 131082, 0, 0, 131083, 0, 0, 131084, 0, 0, 131085, 0, 0, 131086, 2, 0, 262143, 2, 0, 196608, 0, 0, 196609, 0, 0, 196610, 0, 0, 196611, 1, 0, 196612, 0, 0, 196613, 2, 0, 196614, 0, 0, 196615, 0, 0, 196616, 0, 0, 196617, 1, 0, 196618, 0, 0, 196619, 0, 0, 196620, 0, 0, 196621, 0, 0, 196622, 2, 0, 196623, 2, 0, 196624, 2, 0, 196625, 2, 0, 196626, 2, 0, 196627, 2, 0, 327679, 2, 0, 262144, 0, 0, 262145, 0, 0, 262146, 0, 0, 262147, 1, 0, 262148, 1, 0, 262149, 1, 0, 262150, 1, 0, 262151, 1, 0, 262152, 1, 0, 262153, 1, 0, 262154, 1, 0, 262155, 1, 0, 262156, 1, 0, 262157, 1, 0, 262158, 0, 0, 262159, 0, 0, 262160, 0, 0, 262161, 0, 0, 262162, 0, 0, 262163, 2, 0, 393215, 2, 0, 327680, 0, 0, 327681, 0, 0, 327682, 0, 0, 327683, 0, 0, 327684, 0, 0, 327685, 0, 0, 327686, 0, 0, 327687, 0, 0, 327688, 0, 0, 327689, 1, 0, 327690, 0, 0, 327691, 0, 0, 327692, 0, 0, 327693, 0, 0, 327694, 0, 0, 327695, 0, 0, 327696, 0, 0, 327697, 0, 0, 327698, 0, 0, 327699, 2, 0, 458751, 2, 0, 393216, 0, 0, 393217, 0, 0, 393218, 0, 0, 393219, 0, 0, 393220, 0, 0, 393221, 0, 0, 393222, 0, 0, 393223, 0, 0, 393224, 0, 0, 393225, 1, 0, 393226, 0, 0, 393227, 0, 0, 393228, 0, 0, 393229, 0, 0, 393230, 0, 0, 393231, 0, 0, 393232, 0, 0, 393233, 0, 0, 393234, 0, 0, 393235, 2, 0, 524287, 2, 0, 458752, 0, 0, 458753, 0, 0, 458754, 1, 0, 458755, 0, 0, 458756, 0, 0, 458757, 0, 0, 458758, 0, 0, 458759, 0, 0, 458760, 0, 0, 458761, 1, 0, 458762, 1, 0, 458763, 1, 0, 458764, 1, 0, 458765, 1, 0, 458766, 1, 0, 458767, 1, 0, 458768, 1, 0, 458769, 1, 0, 458770, 0, 0, 458771, 2, 0, 589823, 2, 0, 524288, 0, 0, 524289, 0, 0, 524290, 1, 0, 524291, 0, 0, 524292, 0, 0, 524293, 0, 0, 524294, 0, 0, 524295, 0, 0, 524296, 0, 0, 524297, 1, 0, 524298, 0, 0, 524299, 0, 0, 524300, 0, 0, 524301, 0, 0, 524302, 2, 0, 524303, 0, 0, 524304, 0, 0, 524305, 0, 0, 524306, 0, 0, 524307, 2, 0, 655359, 2, 0, 589824, 0, 0, 589825, 0, 0, 589826, 1, 0, 589827, 0, 0, 589828, 0, 0, 589829, 0, 0, 589830, 0, 0, 589831, 0, 0, 589832, 0, 0, 589833, 1, 0, 589834, 0, 0, 589835, 0, 0, 589836, 0, 0, 589837, 0, 0, 589838, 2, 0, 589839, 0, 0, 589840, 0, 0, 589841, 0, 0, 589842, 0, 0, 589843, 2, 0, 720895, 2, 0, 655360, 0, 0, 655361, 0, 0, 655362, 1, 0, 655363, 1, 0, 655364, 1, 0, 655365, 1, 0, 655366, 1, 0, 655367, 1, 0, 655368, 1, 0, 655369, 1, 0, 655370, 0, 0, 655371, 0, 0, 655372, 0, 0, 655373, 0, 0, 655374, 2, 0, 655375, 0, 0, 655376, 0, 0, 655377, 0, 0, 655378, 0, 0, 655379, 2, 0, 786431, 2, 0, 720896, 2, 0, 720897, 2, 0, 720898, 0, 0, 720899, 0, 0, 720900, 0, 0, 720901, 0, 0, 720902, 0, 0, 720903, 0, 0, 720904, 0, 0, 720905, 0, 0, 720906, 0, 0, 720907, 0, 0, 720908, 0, 0, 720909, 0, 0, 720910, 2, 0, 720911, 2, 0, 720912, 2, 0, 720913, 2, 0, 720914, 2, 0, 720915, 2, 0, 786433, 2, 0, 786434, 2, 0, 786435, 2, 0, 786436, 2, 0, 786437, 2, 0, 786438, 2, 0, 786439, 2, 0, 786440, 2, 0, 786441, 2, 0, 786442, 2, 0, 786443, 2, 0, 786444, 2, 0, 786445, 2, 0, 786446, 2, 0 )

[node name="HUD" parent="." instance=ExtResource( 15 )]

[node name="InicioTimerGranos" type="Timer" parent="."]
wait_time = 10.0
one_shot = true

[node name="InicioTimerHortalizas" type="Timer" parent="."]
wait_time = 10.0
one_shot = true

[node name="InicioTimerFrutas" type="Timer" parent="."]
wait_time = 10.0
one_shot = true

[node name="Posicion_Inicial_Jugador" type="Position2D" parent="."]
position = Vector2( 1218, 152 )

[node name="Vendedor_masculino_1" parent="." instance=ExtResource( 6 )]
position = Vector2( 173, 128 )

[node name="Vendedor_masculino_11" parent="." instance=ExtResource( 6 )]
position = Vector2( 177, 476 )

[node name="Vendedor_masculino_12" parent="." instance=ExtResource( 6 )]
position = Vector2( 449, 566 )

[node name="Vendedor_masculino_13" parent="." instance=ExtResource( 6 )]
position = Vector2( 646, 674 )

[node name="Vendedor_masculino_2" parent="." instance=ExtResource( 5 )]
position = Vector2( 173, 1071 )

[node name="Vendedor_masculino_7" parent="." instance=ExtResource( 5 )]
position = Vector2( 719, 905 )

[node name="Vendedor_masculino_8" parent="." instance=ExtResource( 5 )]
position = Vector2( 858, 1401 )

[node name="Vendedor_masculino_9" parent="." instance=ExtResource( 5 )]
position = Vector2( 1179, 1031 )

[node name="Vendedor_masculino_3" parent="." instance=ExtResource( 8 )]
position = Vector2( 1688, 954 )

[node name="Vendedor_masculino_10" parent="." instance=ExtResource( 8 )]
position = Vector2( 2249, 777 )

[node name="Vendedor_masculino_4" parent="." instance=ExtResource( 8 )]
position = Vector2( 1621, 774 )

[node name="Vendedor_masculino_5" parent="." instance=ExtResource( 8 )]
position = Vector2( 2041, 1286 )

[node name="Vendedor_masculino_6" parent="." instance=ExtResource( 8 )]
position = Vector2( 2041, 1286 )

[node name="Creador_Enemigos_1" parent="." instance=ExtResource( 1 )]
position = Vector2( 162, 360 )

[node name="Creador_Enemigos_7" parent="." instance=ExtResource( 1 )]
position = Vector2( 501, 606 )

[node name="Creador_Enemigos_4" parent="." instance=ExtResource( 1 )]
position = Vector2( 434, 1083 )

[node name="Creador_Enemigos_5" parent="." instance=ExtResource( 1 )]
position = Vector2( 987, 925 )

[node name="Creador_Enemigos_8" parent="." instance=ExtResource( 1 )]
position = Vector2( 1438, 1128 )

[node name="Creador_Enemigos_6" parent="." instance=ExtResource( 1 )]
position = Vector2( 1582, 723 )

[node name="Creador_Enemigos_2" parent="." instance=ExtResource( 1 )]
position = Vector2( 1078, 530 )

[node name="Creador_Enemigos_3" parent="." instance=ExtResource( 1 )]
position = Vector2( 2162, 931 )

[node name="MusicaFondo" type="AudioStreamPlayer" parent="."]
stream = ExtResource( 9 )
autoplay = true

[node name="Edificio_frutas" parent="." instance=ExtResource( 11 )]
position = Vector2( 2228, 1116 )

[node name="Edificio_frutas3" parent="." instance=ExtResource( 11 )]
position = Vector2( 1041, 762 )

[node name="Cajas frutas" parent="." instance=ExtResource( 10 )]
position = Vector2( 309, 806 )

[node name="Cajas frutas3" parent="." instance=ExtResource( 10 )]
position = Vector2( 1960, 719 )

[node name="Cajas frutas2" parent="." instance=ExtResource( 10 )]
position = Vector2( 1409, 1327 )

[node name="Edificio_carnes" parent="." instance=ExtResource( 4 )]
position = Vector2( 449, 294 )

[node name="Edificio_carnes2" parent="." instance=ExtResource( 4 )]
position = Vector2( 1408, 411 )

[node name="Edificio_carnes3" parent="." instance=ExtResource( 4 )]
position = Vector2( 806, 1178 )
